{
    "parent": "block/block",
 "textures": {
        "0": "blocks/planks_big_oak",
        "1": "blocks/log_big_oak",
        "2": "blocks/log_big_oak_top",
        "3": "blocks/hardened_clay",
        "4": "blocks/hardened_clay_stained_brown",
        "particle": "blocks/log_big_oak"
    },
    "elements": [
        {
            "name": "leg",
            "from": [ 0.0, 0.0, 0.0 ], 
            "to": [ 3.0, 13.0, 3.0 ], 
            "faces": {
                "north": { "texture": "#0", "uv": [ 0.0, 0.0, 3.0, 13.0 ] },
                "east": { "texture": "#0", "uv": [ 0.0, 0.0, 3.0, 13.0 ] },
                "south": { "texture": "#0", "uv": [ 0.0, 0.0, 3.0, 13.0 ] },
                "west": { "texture": "#0", "uv": [ 0.0, 0.0, 3.0, 13.0 ] },
                "up": { "texture": "#0", "uv": [ 0.0, 0.0, 3.0, 3.0 ] },
                "down": { "texture": "#0", "uv": [ 0.0, 0.0, 3.0, 3.0 ] }
            }
        },
        {
            "name": "leg2",
            "from": [ 13.0, 0.0, 0.0 ], 
            "to": [ 16.0, 13.0, 3.0 ], 
            "faces": {
                "north": { "texture": "#0", "uv": [ 0.0, 0.0, 3.0, 13.0 ] },
                "east": { "texture": "#0", "uv": [ 0.0, 0.0, 3.0, 13.0 ] },
                "south": { "texture": "#0", "uv": [ 0.0, 0.0, 3.0, 13.0 ] },
                "west": { "texture": "#0", "uv": [ 0.0, 0.0, 3.0, 13.0 ] },
                "up": { "texture": "#0", "uv": [ 0.0, 0.0, 3.0, 3.0 ] },
                "down": { "texture": "#0", "uv": [ 0.0, 0.0, 3.0, 3.0 ] }
            }
        },
        {
            "name": "leg3",
            "from": [ 13.0, 0.0, 13.0 ], 
            "to": [ 16.0, 13.0, 16.0 ], 
            "faces": {
                "north": { "texture": "#0", "uv": [ 0.0, 0.0, 3.0, 13.0 ] },
                "east": { "texture": "#0", "uv": [ 0.0, 0.0, 3.0, 13.0 ] },
                "south": { "texture": "#0", "uv": [ 0.0, 0.0, 3.0, 13.0 ] },
                "west": { "texture": "#0", "uv": [ 0.0, 0.0, 3.0, 13.0 ] },
                "up": { "texture": "#0", "uv": [ 0.0, 0.0, 3.0, 3.0 ] },
                "down": { "texture": "#0", "uv": [ 0.0, 0.0, 3.0, 3.0 ] }
            }
        },
        {
            "name": "leg4",
            "from": [ 0.0, 0.0, 13.0 ], 
            "to": [ 3.0, 13.0, 16.0 ], 
            "faces": {
                "north": { "texture": "#0", "uv": [ 0.0, 0.0, 3.0, 13.0 ] },
                "east": { "texture": "#0", "uv": [ 0.0, 0.0, 3.0, 13.0 ] },
                "south": { "texture": "#0", "uv": [ 0.0, 0.0, 3.0, 13.0 ] },
                "west": { "texture": "#0", "uv": [ 0.0, 0.0, 3.0, 13.0 ] },
                "up": { "texture": "#0", "uv": [ 0.0, 0.0, 3.0, 3.0 ] },
                "down": { "texture": "#0", "uv": [ 0.0, 0.0, 3.0, 3.0 ] }
            }
        },
        {
            "name": "topSlab",
            "from": [ 0.0, 13.0, 0.0 ], 
            "to": [ 16.0, 16.0, 16.0 ], 
            "faces": {
                "north": { "texture": "#1", "uv": [ 0.0, 0.0, 16.0, 3.0 ] },
                "east": { "texture": "#1", "uv": [ 0.0, 0.0, 16.0, 3.0 ] },
                "south": { "texture": "#1", "uv": [ 0.0, 0.0, 16.0, 3.0 ] },
                "west": { "texture": "#1", "uv": [ 0.0, 0.0, 16.0, 3.0 ] },
                "up": { "texture": "#2", "uv": [ 0.0, 0.0, 16.0, 16.0 ] },
                "down": { "texture": "#2", "uv": [ 0.0, 0.0, 16.0, 16.0 ] }
            }
        },
        {
            "name": "Cube",
            "from": [ 1.0, 16.0, 1.0 ], 
            "to": [ 4.0, 18.0, 4.0 ], 
            "faces": {
                "north": { "texture": "#3", "uv": [ 0.0, 0.0, 3.0, 2.0 ] },
                "east": { "texture": "#3", "uv": [ 0.0, 0.0, 3.0, 2.0 ] },
                "south": { "texture": "#3", "uv": [ 0.0, 0.0, 3.0, 2.0 ] },
                "west": { "texture": "#3", "uv": [ 0.0, 0.0, 3.0, 2.0 ] },
                "up": { "texture": "#3", "uv": [ 0.0, 0.0, 3.0, 3.0 ] },
                "down": { "texture": "#3", "uv": [ 0.0, 0.0, 3.0, 3.0 ] }
            }
        },
        {
            "name": "Cube",
            "from": [ 1.2, 18.0, 1.2 ], 
            "to": [ 3.7, 18.5, 3.7 ], 
            "faces": {
                "north": { "texture": "#3", "uv": [ 0.0, 0.0, 2.5, 0.5 ] },
                "east": { "texture": "#3", "uv": [ 0.0, 0.0, 2.5, 0.5 ] },
                "south": { "texture": "#3", "uv": [ 0.0, 0.0, 2.5, 0.5 ] },
                "west": { "texture": "#3", "uv": [ 0.0, 0.0, 2.5, 0.5 ] },
                "up": { "texture": "#3", "uv": [ 0.0, 0.0, 2.5, 2.5 ] },
                "down": { "texture": "#3", "uv": [ 0.0, 0.0, 2.5, 2.5 ] }
            }
        },
        {
            "name": "Cube",
            "from": [ 1.0, 18.2, 1.0 ], 
            "to": [ 4.0, 19.2, 4.0 ], 
            "faces": {
                "north": { "texture": "#4", "uv": [ 0.0, 0.0, 3.0, 1.0 ] },
                "east": { "texture": "#4", "uv": [ 0.0, 0.0, 3.0, 1.0 ] },
                "south": { "texture": "#4", "uv": [ 0.0, 0.0, 3.0, 1.0 ] },
                "west": { "texture": "#4", "uv": [ 0.0, 0.0, 3.0, 1.0 ] },
                "up": { "texture": "#4", "uv": [ 0.0, 0.0, 3.0, 3.0 ] },
                "down": { "texture": "#4", "uv": [ 0.0, 0.0, 3.0, 3.0 ] }
            }
        }
    ]
}