{
    "forge_marker": 1,
     "defaults": {
        "model": "grimoire:block/small_hell_crystals",
        "uvlock": true
    },
    "variants": {
        "normal": [{ }],
        "inventory": [{ }],
        "stage=0":[{ }],
        "stage=1":[{ }]
    }
}